[gd_scene load_steps=2 format=3 uid="uid://bmypmxtwiewk5"]

[ext_resource type="Script" path="res://Main/Main.gd" id="1_vg3pd"]

[node name="Main" type="Node2D"]
script = ExtResource("1_vg3pd")

[node name="PanelContainer" type="PanelContainer" parent="."]
offset_right = 301.0
offset_bottom = 286.0

[node name="FindLiarButton" type="Button" parent="PanelContainer"]
layout_mode = 2
text = "Find the Liar"
